/*! ../utils/get */

/*! ./lib/commenting */

/*! ./lib/populateForm */

/*!************************!*\
  !*** ./src/js/post.js ***!
  \************************/

/*!*****************************!*\
  !*** ./src/js/utils/get.js ***!
  \*****************************/

/*!**********************************!*\
  !*** ./src/js/lib/commenting.js ***!
  \**********************************/

/*!************************************!*\
  !*** ./src/js/lib/populateForm.js ***!
  \************************************/
