/*! vanilla-lazyload */

/*!********************************!*\
  !*** ./src/js/xBlogCatalog.js ***!
  \********************************/

/*!************************************************************!*\
  !*** ./node_modules/vanilla-lazyload/dist/lazyload.min.js ***!
  \************************************************************/
